[
    "hubot-rules",
    "hubot-principles",
    "hubot-mongodb-brain",
    "hubot-pugme",
    "hubot-motivate",
    "hubot-standup-alarm",
    "hubot-shipit",
    "hubot-pubsub",
    "hubot-greetings",
    "hubot-tell",
    "hubot-seen",
    "hubot-help",
    "hubot-diagnostics",
    "hubot-heroku-keepalive",
    "hubot-google-images",
    "hubot-google-translate",
    "hubot-youtube",
    "hubot-vtr-scripts",
    "hubot-maps",
    "hubot-calculator"
]
