{
    "logo": "https://i.imgur.com/WNRjxyN.jpg",
    "env": {
        "GHOST_WRAPPER": {
            "description": "Uchikoma's wrapper : django,scrapy,hubot,luigi,airflow",
            "required": true,
            "value": "django"
        },
        "DISABLE_COLLECTSTATIC": {
            "description": "Disabling the Django static files.",
            "required": false,
            "value": "1"
        }
    }
}
