{
    "env": {
        "HUBOT_SMS_FROM": {
            "description": "Example : +14156662671",
            "required": true
        },
        "HUBOT_SMS_SID": {
            "description": "Twilio SID.",
            "required": true
        },
        "HUBOT_SMS_TOKEN": {
            "description": "Twilio Token",
            "required": true
        }
    }
}
